<svg width="1281" height="307" viewBox="0 0 1281 307" fill="none" xmlns="http://www.w3.org/2000/svg">
<g filter="url(#filter0_df_578_9728)">
<path d="M438 44.4996C264.163 21.35 22 45.9887 22 152.926C22 220.645 158.851 255.012 293.204 255.012C421.651 255.012 520.339 194.146 624.657 152.926C728.975 111.706 887.179 37.1494 1033.22 37.1494C1179.27 37.1494 1259 78.1405 1259 152.926C1259 227.712 1098.54 290 882.306 243" stroke="#02FFFC"/>
</g>
<g filter="url(#filter1_d_578_9728)">
<path d="M440.5 37.9993C266.663 14.8497 22 45.9884 22 152.926C22 220.645 158.851 255.011 293.204 255.011C421.651 255.011 520.339 194.146 624.657 152.926C728.975 111.705 887.179 37.1491 1033.22 37.1491C1179.27 37.1491 1259 78.1402 1259 152.926C1259 227.711 1097.54 291.999 881.306 244.999" stroke="#02FFFC"/>
</g>
<g filter="url(#filter2_d_578_9728)">
<path d="M22 152.926C22 45.9883 266.016 15.9995 439.853 39.1491L422.894 71.9995C310.889 58.2837 72.8792 53.6667 72.8792 152.926C72.8792 263.176 371.669 257.182 552.778 183.667C562.041 179.554 571.284 175.45 580.532 171.411C592.649 165.583 604.035 159.415 614.53 152.926C663.321 122.759 737.017 96.4148 816.372 78.5501C886.34 55.2526 961.258 37.1491 1033.22 37.1491C1179.27 37.1491 1259 78.1402 1259 152.926C1259 227.711 1096.54 291.999 880.306 244.999L885.606 219C992.664 250 1219.78 280.185 1219.78 152.926C1219.78 41.3983 1002.51 36.6456 816.372 78.5501C744.349 102.532 677.571 132.017 624.657 152.926C609.869 158.769 595.194 165.007 580.532 171.411C571.653 175.681 562.381 179.769 552.778 183.667C473.122 219.034 391.959 255.011 293.204 255.011C158.851 255.011 22 220.645 22 152.926Z" fill="url(#paint0_linear_578_9728)" fill-opacity="0.6" shape-rendering="crispEdges"/>
</g>
<g filter="url(#filter3_d_578_9728)">
<path d="M22 152.926C22 45.9883 266.016 15.9995 439.853 39.1491L422.894 71.9995C310.889 58.2837 72.8792 53.6667 72.8792 152.926C72.8792 263.176 371.669 257.182 552.778 183.667C562.041 179.554 571.284 175.45 580.532 171.411C592.649 165.583 604.035 159.415 614.53 152.926C663.321 122.759 737.017 96.4148 816.372 78.5501C886.34 55.2526 961.258 37.1491 1033.22 37.1491C1179.27 37.1491 1259 78.1402 1259 152.926C1259 227.711 1096.54 291.999 880.306 244.999L885.606 219C992.664 250 1219.78 280.185 1219.78 152.926C1219.78 41.3983 1002.51 36.6456 816.372 78.5501C744.349 102.532 677.571 132.017 624.657 152.926C609.869 158.769 595.194 165.007 580.532 171.411C571.653 175.681 562.381 179.769 552.778 183.667C473.122 219.034 391.959 255.011 293.204 255.011C158.851 255.011 22 220.645 22 152.926Z" fill="url(#paint1_linear_578_9728)" shape-rendering="crispEdges"/>
</g>
<g filter="url(#filter4_d_578_9728)">
<path d="M445 32.9996C255.5 9.99913 61.2194 35.1163 61.2194 147.999C61.2194 219.484 190.106 266.486 314.558 266.486C433.539 266.486 524.954 202.237 621.585 158.725C718.215 115.213 864.76 36.5108 1000.04 36.5108C1135.33 36.5108 1209.18 79.7811 1209.18 158.725C1209.18 237.668 1079.3 310.113 879 260.5" stroke="#02FFFC"/>
</g>
<g filter="url(#filter5_d_578_9728)">
<path d="M61.2194 148C61.2194 35.1164 284.474 6.06273 445.5 30.4994L428.254 61.9996C322.255 49.333 97.2588 46.9996 97.2588 139C97.2588 254 478.121 234 621.585 148C653.355 128.955 698.363 112.776 749.187 100.479C827.342 66.9771 915.872 36.511 1000.04 36.511C1135.33 36.511 1209.18 79.7812 1209.18 158.725C1209.18 237.669 1075.31 319.1 875.006 269.487L877.006 257C973.818 265.333 1178.44 258.145 1178.44 158.725C1178.44 61.9711 927.868 57.2435 749.187 100.479C701.727 120.822 658.093 142.285 621.585 158.725C524.954 202.237 433.539 266.487 314.558 266.487C190.106 266.487 61.2194 219.484 61.2194 148Z" fill="url(#paint2_linear_578_9728)" shape-rendering="crispEdges"/>
</g>
<g filter="url(#filter6_d_578_9728)">
<path d="M434.5 52.4995C312.248 40.8328 52.7395 40.9996 52.7395 145C52.7395 275 505.352 246 642.09 145" stroke="#02FFFC"/>
</g>
<defs>
<filter id="filter0_df_578_9728" x="9.5" y="24.0244" width="1262" height="247.769" filterUnits="userSpaceOnUse" color-interpolation-filters="sRGB">
<feFlood flood-opacity="0" result="BackgroundImageFix"/>
<feColorMatrix in="SourceAlpha" type="matrix" values="0 0 0 0 0 0 0 0 0 0 0 0 0 0 0 0 0 0 127 0" result="hardAlpha"/>
<feOffset/>
<feGaussianBlur stdDeviation="6"/>
<feComposite in2="hardAlpha" operator="out"/>
<feColorMatrix type="matrix" values="0 0 0 0 0.120833 0 0 0 0 0.765874 0 0 0 0 1 0 0 0 1 0"/>
<feBlend mode="normal" in2="BackgroundImageFix" result="effect1_dropShadow_578_9728"/>
<feBlend mode="normal" in="SourceGraphic" in2="effect1_dropShadow_578_9728" result="shape"/>
<feGaussianBlur stdDeviation="3" result="effect2_foregroundBlur_578_9728"/>
</filter>
<filter id="filter1_d_578_9728" x="11.5" y="20.292" width="1258" height="251.213" filterUnits="userSpaceOnUse" color-interpolation-filters="sRGB">
<feFlood flood-opacity="0" result="BackgroundImageFix"/>
<feColorMatrix in="SourceAlpha" type="matrix" values="0 0 0 0 0 0 0 0 0 0 0 0 0 0 0 0 0 0 127 0" result="hardAlpha"/>
<feOffset/>
<feGaussianBlur stdDeviation="5"/>
<feComposite in2="hardAlpha" operator="out"/>
<feColorMatrix type="matrix" values="0 0 0 0 0.120833 0 0 0 0 0.765874 0 0 0 0 1 0 0 0 1 0"/>
<feBlend mode="normal" in2="BackgroundImageFix" result="effect1_dropShadow_578_9728"/>
<feBlend mode="normal" in="SourceGraphic" in2="effect1_dropShadow_578_9728" result="shape"/>
</filter>
<filter id="filter2_d_578_9728" x="0" y="9.81494" width="1281" height="273.19" filterUnits="userSpaceOnUse" color-interpolation-filters="sRGB">
<feFlood flood-opacity="0" result="BackgroundImageFix"/>
<feColorMatrix in="SourceAlpha" type="matrix" values="0 0 0 0 0 0 0 0 0 0 0 0 0 0 0 0 0 0 127 0" result="hardAlpha"/>
<feOffset/>
<feGaussianBlur stdDeviation="11"/>
<feComposite in2="hardAlpha" operator="out"/>
<feColorMatrix type="matrix" values="0 0 0 0 0.5625 0 0 0 0 0.901408 0 0 0 0 1 0 0 0 1 0"/>
<feBlend mode="normal" in2="BackgroundImageFix" result="effect1_dropShadow_578_9728"/>
<feBlend mode="normal" in="SourceGraphic" in2="effect1_dropShadow_578_9728" result="shape"/>
</filter>
<filter id="filter3_d_578_9728" x="0" y="9.81494" width="1281" height="273.19" filterUnits="userSpaceOnUse" color-interpolation-filters="sRGB">
<feFlood flood-opacity="0" result="BackgroundImageFix"/>
<feColorMatrix in="SourceAlpha" type="matrix" values="0 0 0 0 0 0 0 0 0 0 0 0 0 0 0 0 0 0 127 0" result="hardAlpha"/>
<feOffset/>
<feGaussianBlur stdDeviation="11"/>
<feComposite in2="hardAlpha" operator="out"/>
<feColorMatrix type="matrix" values="0 0 0 0 0.5625 0 0 0 0 0.901408 0 0 0 0 1 0 0 0 1 0"/>
<feBlend mode="normal" in2="BackgroundImageFix" result="effect1_dropShadow_578_9728"/>
<feBlend mode="normal" in="SourceGraphic" in2="effect1_dropShadow_578_9728" result="shape"/>
</filter>
<filter id="filter4_d_578_9728" x="50.7194" y="14.728" width="1168.96" height="272.542" filterUnits="userSpaceOnUse" color-interpolation-filters="sRGB">
<feFlood flood-opacity="0" result="BackgroundImageFix"/>
<feColorMatrix in="SourceAlpha" type="matrix" values="0 0 0 0 0 0 0 0 0 0 0 0 0 0 0 0 0 0 127 0" result="hardAlpha"/>
<feOffset/>
<feGaussianBlur stdDeviation="5"/>
<feComposite in2="hardAlpha" operator="out"/>
<feColorMatrix type="matrix" values="0 0 0 0 0.120833 0 0 0 0 0.765874 0 0 0 0 1 0 0 0 1 0"/>
<feBlend mode="normal" in2="BackgroundImageFix" result="effect1_dropShadow_578_9728"/>
<feBlend mode="normal" in="SourceGraphic" in2="effect1_dropShadow_578_9728" result="shape"/>
</filter>
<filter id="filter5_d_578_9728" x="39.2194" y="0.457031" width="1191.96" height="306.187" filterUnits="userSpaceOnUse" color-interpolation-filters="sRGB">
<feFlood flood-opacity="0" result="BackgroundImageFix"/>
<feColorMatrix in="SourceAlpha" type="matrix" values="0 0 0 0 0 0 0 0 0 0 0 0 0 0 0 0 0 0 127 0" result="hardAlpha"/>
<feOffset/>
<feGaussianBlur stdDeviation="11"/>
<feComposite in2="hardAlpha" operator="out"/>
<feColorMatrix type="matrix" values="0 0 0 0 0.5625 0 0 0 0 0.901408 0 0 0 0 1 0 0 0 1 0"/>
<feBlend mode="normal" in2="BackgroundImageFix" result="effect1_dropShadow_578_9728"/>
<feBlend mode="normal" in="SourceGraphic" in2="effect1_dropShadow_578_9728" result="shape"/>
</filter>
<filter id="filter6_d_578_9728" x="42.2395" y="36.9058" width="610.148" height="205.558" filterUnits="userSpaceOnUse" color-interpolation-filters="sRGB">
<feFlood flood-opacity="0" result="BackgroundImageFix"/>
<feColorMatrix in="SourceAlpha" type="matrix" values="0 0 0 0 0 0 0 0 0 0 0 0 0 0 0 0 0 0 127 0" result="hardAlpha"/>
<feOffset/>
<feGaussianBlur stdDeviation="5"/>
<feComposite in2="hardAlpha" operator="out"/>
<feColorMatrix type="matrix" values="0 0 0 0 0.120833 0 0 0 0 0.765874 0 0 0 0 1 0 0 0 1 0"/>
<feBlend mode="normal" in2="BackgroundImageFix" result="effect1_dropShadow_578_9728"/>
<feBlend mode="normal" in="SourceGraphic" in2="effect1_dropShadow_578_9728" result="shape"/>
</filter>
<linearGradient id="paint0_linear_578_9728" x1="663" y1="332" x2="741.365" y2="187.19" gradientUnits="userSpaceOnUse">
<stop stop-color="#01B3FF" stop-opacity="0.78"/>
<stop offset="1" stop-color="white" stop-opacity="0"/>
</linearGradient>
<linearGradient id="paint1_linear_578_9728" x1="1053.36" y1="291" x2="1032.14" y2="6.65285" gradientUnits="userSpaceOnUse">
<stop stop-color="#01B3FF" stop-opacity="0.78"/>
<stop offset="1" stop-color="white" stop-opacity="0"/>
</linearGradient>
<linearGradient id="paint2_linear_578_9728" x1="300.775" y1="8.99952" x2="336.408" y2="367.146" gradientUnits="userSpaceOnUse">
<stop stop-color="#01B3FF" stop-opacity="0.78"/>
<stop offset="1" stop-color="#B9EAFF" stop-opacity="0.69"/>
</linearGradient>
</defs>
</svg>
